…
```
## # A tibble: 390 x 11
##      pi0 alpha beta_minus_one  beta alpha_sd beta_sd pi0_sd true_pi1      pi1   rep qvalue_pi1
##    <dbl> <dbl>          <dbl> <dbl>    <dbl>   <dbl>  <dbl>    <dbl>    <dbl> <int>      <dbl>
##  1 1.00  0.500          1.00   2.00    0.258    2.24 0.500     0.001 7.87e-11     1     0.0503
##  2 0.994 0.502          1.01   2.01    0.221    1.96 0.159     0.001 5.82e- 3     2    -0.106 
##  3 0.984 0.603          1.07   2.07    0.218    1.86 0.131     0.001 1.58e- 2     3    -0.0303
##  4 0.995 0.488          1.03   2.03    0.230    2.71 0.157     0.001 5.49e- 3     4    -0.244 
##  5 0.993 0.576          0.992  1.99    0.293    1.83 0.342     0.001 6.81e- 3     5     0.101 
##  6 0.990 0.408          0.995  1.99    0.191    2.00 0.0356    0.001 1.00e- 2     6    -0.0221
##  7 0.973 0.488          1.02   2.02    0.161    1.85 0.0405    0.001 2.65e- 2     7    -0.0593
##  8 0.955 0.845          0.919  1.92    0.230    1.15 0.196     0.001 4.51e- 2     8     0.101 
##  9 1.00  0.500          1.00   2.00    0.262    1.97 0.500     0.001 1.50e-10     9    -0.289 
## 10 0.994 0.303          0.984  1.98    0.159    2.18 0.0272    0.001 6.27e- 3    10     0.0833
## # … with 380 more rows
```
…
```
## # A tibble: 110 x 6
##    true_jaccard actual_jacc est_pi1_1 est_pi1_2 est_jaccard jaccard_sd
##           <dbl>       <dbl>     <dbl>     <dbl>       <dbl>      <dbl>
##  1            0           0     0.901     0.899    2.57e- 7     0.253 
##  2            0           0     0.895     0.897    2.71e- 3     0.0581
##  3            0           0     0.898     0.901    4.83e- 8     0.247 
##  4            0           0     0.896     0.904    1.13e- 7     0.240 
##  5            0           0     0.905     0.893    2.45e- 6     0.253 
##  6            0           0     0.905     0.901    1.13e- 5     0.235 
##  7            0           0     0.899     0.891    3.61e- 9     0.262 
##  8            0           0     0.909     0.905    1.50e- 7     0.256 
##  9            0           0     0.897     0.905    6.21e- 6     0.225 
## 10            0           0     0.899     0.902    8.69e-10     0.248 
## # … with 100 more rows
```
…
